EESchema Schematic File Version 4
EELAYER 30 0
EELAYER END
$Descr A4 11693 8268
encoding utf-8
Sheet 5 9
Title ""
Date ""
Rev ""
Comp ""
Comment1 ""
Comment2 ""
Comment3 ""
Comment4 ""
$EndDescr
$Comp
L Device:D_Bridge_+-AA D4
U 1 1 60C77E4B
P 4800 2400
F 0 "D4" H 4800 2400 50  0000 L CNN
F 1 "D_Bridge_+-AA" H 4500 2900 50  0000 L CNN
F 2 "_genericSMDdevices:SOIC4W-4.95x8.6mm-p2.54-MB6S" H 4800 2400 50  0001 C CNN
F 3 "~" H 4800 2400 50  0001 C CNN
	1    4800 2400
	1    0    0    -1  
$EndComp
Wire Wire Line
	2800 2450 3250 2450
Wire Wire Line
	3250 2350 3250 2200
Wire Wire Line
	3250 2450 3250 2600
Wire Wire Line
	4800 2000 4800 2100
Wire Wire Line
	4800 2800 4800 2700
Wire Wire Line
	4500 2400 4450 2400
Wire Wire Line
	4450 2400 4450 3050
Wire Wire Line
	5100 2400 5250 2400
$Comp
L Device:L L2
U 1 1 60C82AAB
P 5550 2400
F 0 "L2" V 5740 2400 50  0000 C CNN
F 1 "LQH32CN4R7M33L" V 5649 2400 50  0000 C CNN
F 2 "Inductor_SMD:L_Neosid_Ms42" H 5550 2400 50  0001 C CNN
F 3 "https://datasheet.lcsc.com/lcsc/Murata-Electronics-LQH32CN4R7M33L_C113072.pdf" H 5550 2400 50  0001 C CNN
	1    5550 2400
	0    -1   -1   0   
$EndComp
$Comp
L Device:CP C17
U 1 1 60C832BA
P 5750 2650
F 0 "C17" H 5868 2696 50  0000 L CNN
F 1 "10uF" H 5868 2605 50  0000 L CNN
F 2 "Capacitor_Tantalum_SMD:CP_EIA-3216-12_Kemet-S" H 5788 2500 50  0001 C CNN
F 3 "~" H 5750 2650 50  0001 C CNN
	1    5750 2650
	1    0    0    -1  
$EndComp
Wire Wire Line
	5750 3050 5750 2800
Wire Wire Line
	4450 3050 5250 3050
Wire Wire Line
	5700 2400 5750 2400
Wire Wire Line
	5750 2400 5750 2500
Connection ~ 5750 2400
Wire Wire Line
	5750 3050 6300 3050
Wire Wire Line
	6300 3050 6300 2700
Connection ~ 5750 3050
Wire Wire Line
	6300 3050 6900 3050
Wire Wire Line
	6900 3050 6900 2800
Connection ~ 6300 3050
$Comp
L Device:CP C18
U 1 1 60C85730
P 6900 2650
F 0 "C18" H 7018 2696 50  0000 L CNN
F 1 "10uF" H 7018 2605 50  0000 L CNN
F 2 "Capacitor_Tantalum_SMD:CP_EIA-3216-12_Kemet-S" H 6938 2500 50  0001 C CNN
F 3 "~" H 6900 2650 50  0001 C CNN
	1    6900 2650
	1    0    0    -1  
$EndComp
Wire Wire Line
	6900 2500 6900 2400
$Comp
L power:GND #PWR047
U 1 1 60C86A1A
P 6300 3200
F 0 "#PWR047" H 6300 2950 50  0001 C CNN
F 1 "GND" H 6305 3027 50  0000 C CNN
F 2 "" H 6300 3200 50  0001 C CNN
F 3 "" H 6300 3200 50  0001 C CNN
	1    6300 3200
	1    0    0    -1  
$EndComp
Wire Wire Line
	6300 3050 6300 3200
$Comp
L Device:R R13
U 1 1 60C8940B
P 5250 2550
F 0 "R13" H 5320 2596 50  0000 L CNN
F 1 "1k" H 5320 2505 50  0000 L CNN
F 2 "Resistor_SMD:R_0805_2012Metric_Pad1.15x1.40mm_HandSolder" V 5180 2550 50  0001 C CNN
F 3 "~" H 5250 2550 50  0001 C CNN
	1    5250 2550
	1    0    0    -1  
$EndComp
$Comp
L Device:LED D6
U 1 1 60C89B64
P 5250 2900
F 0 "D6" V 5289 2783 50  0000 R CNN
F 1 "LED" V 5198 2783 50  0000 R CNN
F 2 "LED_SMD:LED_0805_2012Metric_Pad1.15x1.40mm_HandSolder" H 5250 2900 50  0001 C CNN
F 3 "~" H 5250 2900 50  0001 C CNN
	1    5250 2900
	0    -1   -1   0   
$EndComp
Connection ~ 5250 3050
Wire Wire Line
	5250 3050 5750 3050
Connection ~ 5250 2400
Wire Wire Line
	5250 2400 5400 2400
Wire Wire Line
	5250 2700 5250 2750
Wire Wire Line
	4350 2000 4800 2000
$Comp
L power:PWR_FLAG #FLG02
U 1 1 60D22D02
P 5750 2150
F 0 "#FLG02" H 5750 2225 50  0001 C CNN
F 1 "PWR_FLAG" H 5750 2323 50  0000 C CNN
F 2 "" H 5750 2150 50  0001 C CNN
F 3 "~" H 5750 2150 50  0001 C CNN
	1    5750 2150
	1    0    0    -1  
$EndComp
Wire Wire Line
	5750 2150 5750 2400
Wire Wire Line
	6900 2400 7050 2400
Connection ~ 6900 2400
Text GLabel 7050 2400 2    50   Input ~ 0
VCC_COM
Wire Wire Line
	2800 2350 3250 2350
Text GLabel 3250 2200 1    50   Input ~ 0
VAC_L
Text GLabel 3250 2600 3    50   Input ~ 0
VAC_N
Wire Wire Line
	3250 2200 3350 2200
Wire Wire Line
	3250 2600 3350 2600
Connection ~ 4350 2000
Wire Wire Line
	4350 2000 4350 2450
Connection ~ 4250 2800
Wire Wire Line
	4250 2800 4800 2800
$Comp
L _Transformers:HAHN_BVEI3052055 T1
U 1 1 60CAF028
P 3550 2400
F 0 "T1" H 3627 2825 50  0000 C CNN
F 1 "HAHN_BVEI3052055" H 3627 2734 50  0000 C CNN
F 2 "_Transformers:HAHN_BV-EI-305-2055" H 3550 2780 50  0001 C CNN
F 3 "https://www.tme.eu/Document/412ff82a0d9ae839d6b24853d8f56596/Hahn-E.pdf" H 3550 2780 50  0001 C CNN
	1    3550 2400
	1    0    0    -1  
$EndComp
Wire Wire Line
	3750 2200 3900 2200
Wire Wire Line
	3900 2200 3900 2000
Wire Wire Line
	3900 2000 4350 2000
Wire Wire Line
	3750 2350 4250 2350
Wire Wire Line
	4250 2350 4250 2800
Wire Wire Line
	3750 2450 4350 2450
Wire Wire Line
	3750 2600 3900 2600
Wire Wire Line
	3900 2600 3900 2800
Wire Wire Line
	3900 2800 4250 2800
$Comp
L Connector_Generic:Conn_01x02 J10
U 1 1 60C777F2
P 2600 2450
F 0 "J10" H 2518 2667 50  0000 C CNN
F 1 "AC_in" H 2518 2576 50  0000 C CNN
F 2 "_Conectores:WF142V-508-2" H 2600 2450 50  0001 C CNN
F 3 "~" H 2600 2450 50  0001 C CNN
	1    2600 2450
	-1   0    0    1   
$EndComp
$Comp
L Regulator_Linear:AMS1117-5.0 U4
U 1 1 60D11031
P 6300 2400
F 0 "U4" H 6300 2642 50  0000 C CNN
F 1 "AMS1117-5.0" H 6300 2551 50  0000 C CNN
F 2 "Package_TO_SOT_SMD:SOT-223-3_TabPin2" H 6300 2600 50  0001 C CNN
F 3 "http://www.advanced-monolithic.com/pdf/ds1117.pdf" H 6400 2150 50  0001 C CNN
	1    6300 2400
	1    0    0    -1  
$EndComp
Wire Wire Line
	5750 2400 6000 2400
Wire Wire Line
	6600 2400 6900 2400
$EndSCHEMATC
