EESchema Schematic File Version 4
EELAYER 30 0
EELAYER END
$Descr A4 11693 8268
encoding utf-8
Sheet 3 9
Title ""
Date ""
Rev ""
Comp ""
Comment1 ""
Comment2 ""
Comment3 ""
Comment4 ""
$EndDescr
$Comp
L power:+BATT #PWR045
U 1 1 60FC11B5
P 3700 1650
F 0 "#PWR045" H 3700 1500 50  0001 C CNN
F 1 "+BATT" H 3715 1823 50  0000 C CNN
F 2 "" H 3700 1650 50  0001 C CNN
F 3 "" H 3700 1650 50  0001 C CNN
	1    3700 1650
	1    0    0    -1  
$EndComp
$Comp
L _CI:AIC1642-50GXTR U2
U 1 1 60FC22D2
P 5060 2250
F 0 "U2" H 5065 2565 50  0000 C CNN
F 1 "AIC1642-50GXTR" H 5065 2474 50  0000 C CNN
F 2 "Package_TO_SOT_SMD:SOT-89-3" H 5060 2310 50  0001 C CNN
F 3 "https://datasheet.lcsc.com/lcsc/Analog-Integrations-AIC1642-50GXTR_C238214.pdf" H 5060 2310 50  0001 C CNN
	1    5060 2250
	1    0    0    -1  
$EndComp
Wire Wire Line
	5430 2250 5600 2250
Wire Wire Line
	5060 2520 5060 2600
$Comp
L Device:D D3
U 1 1 60FC398B
P 5050 1750
F 0 "D3" H 5050 1534 50  0000 C CNN
F 1 "SS12" H 5050 1625 50  0000 C CNN
F 2 "Diode_SMD:D_2816_7142Metric_Pad3.20x4.45mm_HandSolder" H 5050 1750 50  0001 C CNN
F 3 "https://datasheet.lcsc.com/lcsc/Semtech-SS12_C84580.pdf" H 5050 1750 50  0001 C CNN
	1    5050 1750
	-1   0    0    1   
$EndComp
$Comp
L Device:L L1
U 1 1 60FC41EF
P 4200 1750
F 0 "L1" V 4390 1750 50  0000 C CNN
F 1 "100uH" V 4299 1750 50  0000 C CNN
F 2 "_inductors:cybermax_CMLF0302_series" H 4200 1750 50  0001 C CNN
F 3 "~" H 4200 1750 50  0001 C CNN
	1    4200 1750
	0    -1   -1   0   
$EndComp
$Comp
L Device:CP C13
U 1 1 60FC487A
P 3700 2160
F 0 "C13" H 3818 2206 50  0000 L CNN
F 1 "22uF" H 3818 2115 50  0000 L CNN
F 2 "Capacitor_SMD:CP_Elec_4x5.4" H 3738 2010 50  0001 C CNN
F 3 "https://datasheet.lcsc.com/lcsc/2010160903_ROQANG-RVT1C220M0405_C72502.pdf" H 3700 2160 50  0001 C CNN
	1    3700 2160
	1    0    0    -1  
$EndComp
Wire Wire Line
	3700 1650 3700 1750
Wire Wire Line
	3700 1750 4050 1750
Wire Wire Line
	4350 1750 4500 1750
Wire Wire Line
	5200 1750 5600 1750
Wire Wire Line
	5800 1750 5800 1850
Wire Wire Line
	5600 1750 5600 2250
Connection ~ 5600 1750
Wire Wire Line
	5600 1750 5800 1750
Wire Wire Line
	4500 1750 4500 2250
Connection ~ 4500 1750
Wire Wire Line
	4500 1750 4900 1750
Wire Wire Line
	4500 2250 4700 2250
Wire Wire Line
	3700 1750 3700 2010
Connection ~ 3700 1750
Wire Wire Line
	3700 2600 5060 2600
Connection ~ 5060 2600
Wire Wire Line
	5060 2600 5060 2720
Wire Wire Line
	3700 2310 3700 2600
$Comp
L Device:CP C14
U 1 1 60FC5BFC
P 5800 2000
F 0 "C14" H 5918 2046 50  0000 L CNN
F 1 "47uF" H 5918 1955 50  0000 L CNN
F 2 "Capacitor_Tantalum_SMD:CP_EIA-3528-21_Kemet-B_Pad1.50x2.35mm_HandSolder" H 5838 1850 50  0001 C CNN
F 3 "~" H 5800 2000 50  0001 C CNN
	1    5800 2000
	1    0    0    -1  
$EndComp
Wire Wire Line
	5800 2600 5800 2150
Wire Wire Line
	5060 2600 5800 2600
$Comp
L power:GND #PWR046
U 1 1 60FC8BBD
P 5060 2720
F 0 "#PWR046" H 5060 2470 50  0001 C CNN
F 1 "GND" H 5065 2547 50  0000 C CNN
F 2 "" H 5060 2720 50  0001 C CNN
F 3 "" H 5060 2720 50  0001 C CNN
	1    5060 2720
	1    0    0    -1  
$EndComp
Wire Wire Line
	5800 1680 5800 1750
Connection ~ 5800 1750
$Comp
L power:VCC #PWR?
U 1 1 60D30FEC
P 5800 1680
AR Path="/60C45676/60D30FEC" Ref="#PWR?"  Part="1" 
AR Path="/60FC0FF2/60D30FEC" Ref="#PWR043"  Part="1" 
F 0 "#PWR043" H 5800 1530 50  0001 C CNN
F 1 "VCC" H 5817 1853 50  0000 C CNN
F 2 "" H 5800 1680 50  0001 C CNN
F 3 "" H 5800 1680 50  0001 C CNN
	1    5800 1680
	1    0    0    -1  
$EndComp
$EndSCHEMATC
