EESchema Schematic File Version 4
EELAYER 30 0
EELAYER END
$Descr A4 11693 8268
encoding utf-8
Sheet 4 9
Title ""
Date ""
Rev ""
Comp ""
Comment1 ""
Comment2 ""
Comment3 ""
Comment4 ""
$EndDescr
$Comp
L Battery_Management:MCP73831-2-OT U?
U 1 1 5E78683A
P 7400 2800
AR Path="/5E78683A" Ref="U?"  Part="1" 
AR Path="/5E776248/5E78683A" Ref="U13"  Part="1" 
AR Path="/5FD20804/5E78683A" Ref="U4"  Part="1" 
AR Path="/60C45B0E/5E78683A" Ref="U3"  Part="1" 
F 0 "U3" H 7400 3281 50  0000 C CNN
F 1 "MCP73831-2-OT" H 7400 3190 50  0000 C CNN
F 2 "Package_TO_SOT_SMD:SOT-23-5" H 7450 2550 50  0001 L CIN
F 3 "http://ww1.microchip.com/downloads/en/DeviceDoc/20001984g.pdf" H 7250 2750 50  0001 C CNN
	1    7400 2800
	1    0    0    -1  
$EndComp
Wire Wire Line
	7400 3100 7400 3350
$Comp
L Device:R R11
U 1 1 5E78D0E0
P 6500 3100
F 0 "R11" H 6100 3100 50  0000 L CNN
F 1 "2k" V 6500 3050 50  0000 L CNN
F 2 "Resistor_SMD:R_0805_2012Metric_Pad1.15x1.40mm_HandSolder" V 6430 3100 50  0001 C CNN
F 3 "~" H 6500 3100 50  0001 C CNN
	1    6500 3100
	1    0    0    -1  
$EndComp
Wire Wire Line
	6500 2900 6500 2950
Wire Wire Line
	6500 3250 6500 3350
Connection ~ 7400 3350
Wire Wire Line
	7400 3350 7400 3450
$Comp
L Device:R R12
U 1 1 5E78DC04
P 8700 2300
F 0 "R12" H 8770 2346 50  0000 L CNN
F 1 "470" V 8700 2250 50  0000 L CNN
F 2 "Resistor_SMD:R_0805_2012Metric_Pad1.15x1.40mm_HandSolder" V 8630 2300 50  0001 C CNN
F 3 "~" H 8700 2300 50  0001 C CNN
	1    8700 2300
	1    0    0    -1  
$EndComp
$Comp
L Device:LED D5
U 1 1 5E78E174
P 8700 2700
F 0 "D5" V 8739 2583 50  0000 R CNN
F 1 "LED" V 8648 2583 50  0000 R CNN
F 2 "LED_SMD:LED_0805_2012Metric_Pad1.15x1.40mm_HandSolder" H 8700 2700 50  0001 C CNN
F 3 "~" H 8700 2700 50  0001 C CNN
	1    8700 2700
	0    -1   -1   0   
$EndComp
Wire Wire Line
	8700 2450 8700 2550
Wire Wire Line
	7400 2500 7400 2450
Wire Wire Line
	7400 2450 6750 2450
Wire Wire Line
	6750 2400 6750 2450
Wire Wire Line
	6750 2100 6750 1900
$Comp
L Device:C C16
U 1 1 5E793550
P 7900 2300
F 0 "C16" H 7550 2500 50  0000 L CNN
F 1 "4,7uF" H 7650 2400 50  0000 L CNN
F 2 "Capacitor_SMD:C_0805_2012Metric_Pad1.15x1.40mm_HandSolder" H 7938 2150 50  0001 C CNN
F 3 "~" H 7900 2300 50  0001 C CNN
	1    7900 2300
	1    0    0    -1  
$EndComp
Wire Wire Line
	7800 2700 7900 2700
Wire Wire Line
	7900 2450 7900 2700
Connection ~ 7900 2700
Wire Wire Line
	7900 2700 8150 2700
Wire Wire Line
	7900 2150 7900 1950
Wire Wire Line
	8700 2900 8700 2850
Wire Wire Line
	7800 2900 8700 2900
Wire Wire Line
	8700 2050 8700 2150
Wire Wire Line
	8150 2500 8150 2700
$Comp
L Device:C C15
U 1 1 5E7919DA
P 6750 2250
F 0 "C15" H 6865 2296 50  0000 L CNN
F 1 "4,7uF" H 6865 2205 50  0000 L CNN
F 2 "Capacitor_SMD:C_0805_2012Metric_Pad1.15x1.40mm_HandSolder" H 6788 2100 50  0001 C CNN
F 3 "~" H 6750 2250 50  0001 C CNN
	1    6750 2250
	1    0    0    -1  
$EndComp
Connection ~ 6750 2450
Wire Wire Line
	6750 2450 6500 2450
Wire Wire Line
	6500 1900 6500 2450
Wire Wire Line
	6500 2900 7000 2900
Wire Wire Line
	6500 3350 7400 3350
$Comp
L power:GND #PWR052
U 1 1 5FD23EA1
P 7400 3450
F 0 "#PWR052" H 7400 3200 50  0001 C CNN
F 1 "GND" H 7405 3277 50  0000 C CNN
F 2 "" H 7400 3450 50  0001 C CNN
F 3 "" H 7400 3450 50  0001 C CNN
	1    7400 3450
	1    0    0    -1  
$EndComp
$Comp
L power:GND #PWR051
U 1 1 5FD2438D
P 6750 1900
F 0 "#PWR051" H 6750 1650 50  0001 C CNN
F 1 "GND" H 6755 1727 50  0000 C CNN
F 2 "" H 6750 1900 50  0001 C CNN
F 3 "" H 6750 1900 50  0001 C CNN
	1    6750 1900
	-1   0    0    1   
$EndComp
$Comp
L power:GND #PWR053
U 1 1 5FD2494A
P 7900 1950
F 0 "#PWR053" H 7900 1700 50  0001 C CNN
F 1 "GND" H 7905 1777 50  0000 C CNN
F 2 "" H 7900 1950 50  0001 C CNN
F 3 "" H 7900 1950 50  0001 C CNN
	1    7900 1950
	-1   0    0    1   
$EndComp
$Comp
L power:+BATT #PWR054
U 1 1 5FD29BF5
P 8150 2500
F 0 "#PWR054" H 8150 2350 50  0001 C CNN
F 1 "+BATT" H 8165 2673 50  0000 C CNN
F 2 "" H 8150 2500 50  0001 C CNN
F 3 "" H 8150 2500 50  0001 C CNN
	1    8150 2500
	1    0    0    -1  
$EndComp
$Comp
L power:VBUS #PWR050
U 1 1 5FD2B855
P 6500 1900
F 0 "#PWR050" H 6500 1750 50  0001 C CNN
F 1 "VBUS" H 6515 2073 50  0000 C CNN
F 2 "" H 6500 1900 50  0001 C CNN
F 3 "" H 6500 1900 50  0001 C CNN
	1    6500 1900
	1    0    0    -1  
$EndComp
$Comp
L power:VBUS #PWR055
U 1 1 5FDA4F8F
P 8700 2050
F 0 "#PWR055" H 8700 1900 50  0001 C CNN
F 1 "VBUS" H 8715 2223 50  0000 C CNN
F 2 "" H 8700 2050 50  0001 C CNN
F 3 "" H 8700 2050 50  0001 C CNN
	1    8700 2050
	1    0    0    -1  
$EndComp
$EndSCHEMATC
