EESchema Schematic File Version 4
EELAYER 30 0
EELAYER END
$Descr A4 11693 8268
encoding utf-8
Sheet 6 6
Title ""
Date ""
Rev ""
Comp ""
Comment1 ""
Comment2 ""
Comment3 ""
Comment4 ""
$EndDescr
$Comp
L Isolator:4N35 U-K1
U 1 1 60DCC7ED
P 2150 1700
F 0 "U-K1" H 2150 2025 50  0000 C CNN
F 1 "4N35" H 2150 1934 50  0000 C CNN
F 2 "Package_DIP:DIP-6_W7.62mm" H 1950 1500 50  0001 L CIN
F 3 "https://www.vishay.com/docs/81181/4n35.pdf" H 2150 1700 50  0001 L CNN
	1    2150 1700
	1    0    0    -1  
$EndComp
$Comp
L Device:R R14
U 1 1 60DCEE84
P 1650 1400
F 0 "R14" H 1581 1354 50  0000 R CNN
F 1 "1k" H 1581 1445 50  0000 R CNN
F 2 "Resistor_SMD:R_0805_2012Metric_Pad1.15x1.40mm_HandSolder" V 1580 1400 50  0001 C CNN
F 3 "~" H 1650 1400 50  0001 C CNN
	1    1650 1400
	1    0    0    1   
$EndComp
Wire Wire Line
	1650 1550 1650 1600
Wire Wire Line
	1650 1600 1850 1600
Wire Wire Line
	1650 1250 1650 1100
Text GLabel 1650 1100 1    50   Input ~ 0
D10
Wire Wire Line
	1850 1800 1650 1800
Wire Wire Line
	2450 1700 2550 1700
Wire Wire Line
	2550 1700 2550 1500
Text GLabel 2550 1500 1    50   Input ~ 0
VCC_COM
NoConn ~ 2450 1600
$Comp
L Device:D D7
U 1 1 60DD10BF
P 2750 2150
F 0 "D7" V 2704 2229 50  0000 L CNN
F 1 "mra4007" V 2795 2229 50  0000 L CNN
F 2 "Diode_SMD:D_SMA" H 2750 2150 50  0001 C CNN
F 3 "~" H 2750 2150 50  0001 C CNN
	1    2750 2150
	0    1    1    0   
$EndComp
Wire Wire Line
	2450 1800 2750 1800
$Comp
L Relay:G5V-1 K1
U 1 1 60DD1CA9
P 4450 1950
F 0 "K1" V 3883 1950 50  0000 C CNN
F 1 "G5V-1" V 3974 1950 50  0000 C CNN
F 2 "Relay_THT:Relay_SPDT_Omron_G5V-1" H 5580 1920 50  0001 C CNN
F 3 "http://omronfs.omron.com/en_US/ecb/products/pdf/en-g5v_1.pdf" H 4450 1950 50  0001 C CNN
	1    4450 1950
	0    1    1    0   
$EndComp
$Comp
L power:GND #PWR048
U 1 1 60DD5925
P 2750 2600
F 0 "#PWR048" H 2750 2350 50  0001 C CNN
F 1 "GND" H 2755 2427 50  0000 C CNN
F 2 "" H 2750 2600 50  0001 C CNN
F 3 "" H 2750 2600 50  0001 C CNN
	1    2750 2600
	1    0    0    -1  
$EndComp
Text Label 2500 1800 0    50   ~ 0
Coil_K1
Text Label 4750 1750 0    50   ~ 0
Coil_K1
$Comp
L power:GND #PWR057
U 1 1 60DD6CEC
P 4100 1650
F 0 "#PWR057" H 4100 1400 50  0001 C CNN
F 1 "GND" H 4105 1477 50  0000 C CNN
F 2 "" H 4100 1650 50  0001 C CNN
F 3 "" H 4100 1650 50  0001 C CNN
	1    4100 1650
	-1   0    0    1   
$EndComp
Wire Wire Line
	4100 1650 4100 1750
Wire Wire Line
	4100 1750 4150 1750
Text GLabel 4150 2150 0    50   Input ~ 0
VAC_L
$Comp
L Device:R R15
U 1 1 60DDA694
P 3050 2000
F 0 "R15" H 2981 1954 50  0000 R CNN
F 1 "1k" H 2981 2045 50  0000 R CNN
F 2 "Resistor_SMD:R_0805_2012Metric_Pad1.15x1.40mm_HandSolder" V 2980 2000 50  0001 C CNN
F 3 "~" H 3050 2000 50  0001 C CNN
	1    3050 2000
	1    0    0    1   
$EndComp
$Comp
L Device:LED D8
U 1 1 60DDAEA8
P 3050 2300
F 0 "D8" V 3089 2183 50  0000 R CNN
F 1 "LED" V 2998 2183 50  0000 R CNN
F 2 "LED_SMD:LED_0805_2012Metric_Pad1.15x1.40mm_HandSolder" H 3050 2300 50  0001 C CNN
F 3 "~" H 3050 2300 50  0001 C CNN
	1    3050 2300
	0    -1   -1   0   
$EndComp
Wire Wire Line
	2750 1800 3050 1800
Connection ~ 2750 1800
Wire Wire Line
	2750 1800 2750 2000
Wire Wire Line
	3050 1800 3050 1850
Wire Wire Line
	2750 2300 2750 2500
Wire Wire Line
	2750 2500 3050 2500
Wire Wire Line
	3050 2500 3050 2450
Connection ~ 2750 2500
Wire Wire Line
	2750 2500 2750 2600
Wire Wire Line
	2750 2500 1650 2500
Wire Wire Line
	1650 1800 1650 2500
Text Label 4750 2250 0    50   ~ 0
NO-K1
$Comp
L Connector_Generic:Conn_01x03 J?
U 1 1 60DE4537
P 6050 1700
F 0 "J?" H 6130 1742 50  0000 L CNN
F 1 "Conn_01x03" H 6130 1651 50  0000 L CNN
F 2 "" H 6050 1700 50  0001 C CNN
F 3 "~" H 6050 1700 50  0001 C CNN
	1    6050 1700
	1    0    0    -1  
$EndComp
Text Label 5550 1600 0    50   ~ 0
NO-K1
Wire Wire Line
	5550 1600 5850 1600
Text Label 4750 2050 0    50   ~ 0
NC-K1
Text Label 5550 1700 0    50   ~ 0
NC-K1
Wire Wire Line
	5550 1700 5850 1700
Text GLabel 5800 1800 0    50   Input ~ 0
VAC_N
Wire Wire Line
	5800 1800 5850 1800
$EndSCHEMATC
