%!PS-Adobe-3.0
%%Creator: PCBNEW
%%CreationDate: Fri Jun 25 09:56:22 2021
%%Title: D:\Fran\CloudStation\Electronica_FW+HW\kicad\TIC173\Covap_NH3CO2\GBR\LRWAN-NPTH-drl_map.ps
%%Pages: 1
%%PageOrder: Ascend
%%BoundingBox: 0 0 596 842
%%DocumentMedia: A4 595 842 0 () ()
%%Orientation: Landscape
%%EndComments
%%BeginProlog
/line { newpath moveto lineto stroke } bind def
/cir0 { newpath 0 360 arc stroke } bind def
/cir1 { newpath 0 360 arc gsave fill grestore stroke } bind def
/cir2 { newpath 0 360 arc gsave fill grestore stroke } bind def
/arc0 { newpath arc stroke } bind def
/arc1 { newpath 4 index 4 index moveto arc closepath gsave fill
    grestore stroke } bind def
/arc2 { newpath 4 index 4 index moveto arc closepath gsave fill
    grestore stroke } bind def
/poly0 { stroke } bind def
/poly1 { closepath gsave fill grestore stroke } bind def
/poly2 { closepath gsave fill grestore stroke } bind def
/rect0 { rectstroke } bind def
/rect1 { rectfill } bind def
/rect2 { rectfill } bind def
/linemode0 { 0 setlinecap 0 setlinejoin 0 setlinewidth } bind def
/linemode1 { 1 setlinecap 1 setlinejoin } bind def
/dashedline { [200] 100 setdash } bind def
/solidline { [] 0 setdash } bind def
/phantomshow { moveto
    /KicadFont findfont 0.000001 scalefont setfont
    show } bind def
/textshow { gsave
    findfont exch scalefont setfont concat 1 scale 0 0 moveto show
    } bind def
/reencodefont {
  findfont dup length dict begin
  { 1 index /FID ne
    { def }
    { pop pop } ifelse
  } forall
  /Encoding ISOLatin1Encoding def
  currentdict
  end } bind def
/KicadFont /Helvetica reencodefont definefont pop
/KicadFont-Bold /Helvetica-Bold reencodefont definefont pop
/KicadFont-Oblique /Helvetica-Oblique reencodefont definefont pop
/KicadFont-BoldOblique /Helvetica-BoldOblique reencodefont definefont pop
%%EndProlog
%%Page: 1 1
%%BeginPageSetup
gsave
0.0072 0.0072 scale
linemode1
82680 0 translate 90 rotate
56.3553 setlinewidth
%%EndPageSetup
0 0 0 setrgbcolor
22.1871 setlinewidth
72442.9 51219.9 443.743 cir0
0 0 0 setrgbcolor
74439.7 51219.9 443.743 cir0
0 0 0 setrgbcolor
73441.3 51219.9 443.743 cir0
0 0 0 setrgbcolor
79210 37907.6 887.485 -90 -0 arc0
0 0 0 setrgbcolor
newpath
54138.5 37020.1 moveto
79210 37020.1 lineto
stroke
0 0 0 setrgbcolor
newpath
53251 49888.6 moveto
53251 37907.6 lineto
stroke
0 0 0 setrgbcolor
54138.5 37907.6 887.485 180 270 arc0
0 0 0 setrgbcolor
71000.7 51219.9 443.743 -90 90 arc0
0 0 0 setrgbcolor
54138.5 49888.6 887.485 90 180 arc0
0 0 0 setrgbcolor
newpath
71000.7 50776.1 moveto
54138.5 50776.1 lineto
stroke
0 0 0 setrgbcolor
newpath
53251 56544.8 moveto
53251 52551.1 lineto
stroke
0 0 0 setrgbcolor
54138.5 52551.1 887.485 180 270 arc0
0 0 0 setrgbcolor
newpath
71000.7 51663.6 moveto
54138.5 51663.6 lineto
stroke
0 0 0 setrgbcolor
newpath
75438.2 50776.1 moveto
78988.1 50776.1 lineto
stroke
0 0 0 setrgbcolor
newpath
75438.2 51663.6 moveto
78988.1 51663.6 lineto
stroke
0 0 0 setrgbcolor
75438.2 51219.9 443.743 90 270 arc0
0 0 0 setrgbcolor
52807.3 56544.8 443.743 -0 180 arc0
0 0 0 setrgbcolor
52807.3 58985.4 443.743 180 360 arc0
0 0 0 setrgbcolor
51476.1 37907.6 887.485 -90 -0 arc0
0 0 0 setrgbcolor
newpath
37720 37020.1 moveto
51476.1 37020.1 lineto
stroke
0 0 0 setrgbcolor
newpath
52363.5 56544.8 moveto
52363.5 37907.6 lineto
stroke
0 0 0 setrgbcolor
newpath
53251 77844.4 moveto
53251 58985.4 lineto
stroke
0 0 0 setrgbcolor
newpath
52363.5 77844.4 moveto
52363.5 58985.4 lineto
stroke
0 0 0 setrgbcolor
37720 37907.6 887.485 180 270 arc0
0 0 0 setrgbcolor
newpath
78988.1 59651 moveto
76769.4 59651 lineto
stroke
0 0 0 setrgbcolor
newpath
76769.4 60538.5 moveto
78988.1 60538.5 lineto
stroke
0 0 0 setrgbcolor
newpath
75881.9 62757.2 moveto
75881.9 61425.9 lineto
stroke
0 0 0 setrgbcolor
newpath
74994.4 62757.2 moveto
74994.4 61425.9 lineto
stroke
0 0 0 setrgbcolor
75438.2 62757.2 443.743 -0 180 arc0
0 0 0 setrgbcolor
76769.4 61425.9 1774.97 180 270 arc0
0 0 0 setrgbcolor
76769.4 61425.9 887.485 180 270 arc0
0 0 0 setrgbcolor
78988.1 60094.7 443.743 -90 90 arc0
0 0 0 setrgbcolor
37720 77844.4 887.485 90 180 arc0
0 0 0 setrgbcolor
51476.1 77844.4 887.485 -0 90 arc0
0 0 0 setrgbcolor
54138.5 77844.4 887.485 90 180 arc0
0 0 0 setrgbcolor
newpath
36832.6 77844.4 moveto
36832.6 37907.6 lineto
stroke
0 0 0 setrgbcolor
newpath
51476.1 78731.9 moveto
37720 78731.9 lineto
stroke
0 0 0 setrgbcolor
newpath
78988.1 78731.9 moveto
54138.5 78731.9 lineto
stroke
0 0 0 setrgbcolor
78988.1 49666.8 1109.36 -0 90 arc0
0 0 0 setrgbcolor
78988.1 52773 1109.36 -90 -0 arc0
0 0 0 setrgbcolor
newpath
80097.4 49666.8 moveto
80097.4 37907.6 lineto
stroke
0 0 0 setrgbcolor
newpath
80097.4 77622.5 moveto
80097.4 52773 lineto
stroke
0 0 0 setrgbcolor
78988.1 77622.5 1109.36 -0 90 arc0
78.7399 setlinewidth
118.11 setlinewidth
0 0 0 setrgbcolor
0 0 0 setrgbcolor
newpath
37949.1 35175.5 moveto
37949.1 36356.6 lineto
38230.3 36356.6 lineto
38399.1 36300.3 lineto
38511.6 36187.9 lineto
38567.8 36075.4 lineto
38624 35850.4 lineto
38624 35681.7 lineto
38567.8 35456.7 lineto
38511.6 35344.2 lineto
38399.1 35231.7 lineto
38230.3 35175.5 lineto
37949.1 35175.5 lineto
stroke
newpath
39130.2 35175.5 moveto
39130.2 35962.9 lineto
stroke
newpath
39130.2 35737.9 moveto
39186.5 35850.4 lineto
39242.7 35906.6 lineto
39355.2 35962.9 lineto
39467.7 35962.9 lineto
stroke
newpath
39861.4 35175.5 moveto
39861.4 35962.9 lineto
stroke
newpath
39861.4 36356.6 moveto
39805.1 36300.3 lineto
39861.4 36244.1 lineto
39917.6 36300.3 lineto
39861.4 36356.6 lineto
39861.4 36244.1 lineto
stroke
newpath
40592.5 35175.5 moveto
40480.1 35231.7 lineto
40423.8 35344.2 lineto
40423.8 36356.6 lineto
stroke
newpath
41211.2 35175.5 moveto
41098.7 35231.7 lineto
41042.5 35344.2 lineto
41042.5 36356.6 lineto
stroke
newpath
42561.1 35175.5 moveto
42561.1 36356.6 lineto
42954.8 35512.9 lineto
43348.5 36356.6 lineto
43348.5 35175.5 lineto
stroke
newpath
44417.1 35175.5 moveto
44417.1 35794.2 lineto
44360.8 35906.6 lineto
44248.3 35962.9 lineto
44023.4 35962.9 lineto
43910.9 35906.6 lineto
stroke
newpath
44417.1 35231.7 moveto
44304.6 35175.5 lineto
44023.4 35175.5 lineto
43910.9 35231.7 lineto
43854.6 35344.2 lineto
43854.6 35456.7 lineto
43910.9 35569.2 lineto
44023.4 35625.4 lineto
44304.6 35625.4 lineto
44417.1 35681.7 lineto
stroke
newpath
44979.5 35962.9 moveto
44979.5 34781.8 lineto
stroke
newpath
44979.5 35906.6 moveto
45092 35962.9 lineto
45317 35962.9 lineto
45429.4 35906.6 lineto
45485.7 35850.4 lineto
45541.9 35737.9 lineto
45541.9 35400.5 lineto
45485.7 35288 lineto
45429.4 35231.7 lineto
45317 35175.5 lineto
45092 35175.5 lineto
44979.5 35231.7 lineto
stroke
newpath
46048.1 35288 moveto
46104.4 35231.7 lineto
46048.1 35175.5 lineto
45991.9 35231.7 lineto
46048.1 35288 lineto
46048.1 35175.5 lineto
stroke
newpath
46048.1 35906.6 moveto
46104.4 35850.4 lineto
46048.1 35794.2 lineto
45991.9 35850.4 lineto
46048.1 35906.6 lineto
46048.1 35794.2 lineto
stroke
showpage
grestore
%%EOF
