M48
; DRILL file {KiCad (5.1.4)-1} date 25/06/2021 9:56:23
; FORMAT={-:-/ absolute / metric / decimal}
; #@! TF.CreationDate,2021-06-25T09:56:23+02:00
; #@! TF.GenerationSoftware,Kicad,Pcbnew,(5.1.4)-1
; #@! TF.FileFunction,Plated,1,4,PTH
FMAT,2
METRIC
T1C0.300
T2C0.400
T3C0.500
T4C0.550
T5C0.600
T6C0.700
T7C1.000
T8C1.100
T9C1.200
T10C1.400
T11C1.520
T12C3.200
%
G90
G05
T1
X207.137Y-101.219
X207.137Y-103.378
X214.0Y-137.0
X214.0Y-138.0
X214.0Y-139.0
X214.0Y-140.0
X215.0Y-137.0
X215.0Y-138.0
X215.0Y-139.0
X215.0Y-140.0
X218.559Y-95.204
X220.337Y-95.204
X221.92Y-101.911
X222.0Y-132.0
X222.0Y-133.0
X222.0Y-134.0
X223.0Y-132.0
X223.0Y-133.0
X223.0Y-134.0
X223.139Y-85.598
X223.752Y-90.805
X223.752Y-93.055
X224.0Y-132.0
X224.0Y-133.0
X224.0Y-134.0
X224.252Y-94.805
X224.252Y-96.555
X225.0Y-132.0
X225.0Y-133.0
X225.0Y-134.0
X225.991Y-92.983
X226.081Y-94.888
X226.168Y-90.951
X226.168Y-96.539
X228.092Y-101.981
X228.981Y-108.077
X229.752Y-56.555
X229.752Y-58.555
X231.502Y-85.805
X231.521Y-108.077
X231.546Y-87.776
X231.752Y-56.555
X231.752Y-58.555
X233.252Y-86.305
X233.324Y-87.889
X233.752Y-56.555
X233.752Y-83.305
X234.377Y-76.805
X235.752Y-56.555
X236.032Y-102.301
X237.502Y-77.805
X237.632Y-90.566
X237.635Y-102.366
X238.432Y-90.566
X238.482Y-102.235
X239.232Y-90.566
X239.836Y-85.518
X240.018Y-82.343
X241.936Y-66.929
X242.0Y-95.5
X242.002Y-85.555
X242.062Y-60.706
X242.062Y-61.595
X242.951Y-60.706
X242.951Y-61.595
X243.5Y-104.0
X243.84Y-60.706
X243.84Y-61.595
X244.315Y-92.823
X244.331Y-93.65
X244.331Y-100.859
X244.348Y-95.25
X244.348Y-99.209
X244.444Y-92.033
X245.2Y-87.2
X246.2Y-85.6
X248.5Y-97.0
X249.626Y-93.665
X251.2Y-88.2
X251.471Y-90.293
X252.4Y-98.4
X253.4Y-98.4
X253.6Y-84.6
X254.2Y-98.4
X255.0Y-98.4
X256.0Y-98.4
X256.694Y-89.054
X257.3Y-82.025
X257.4Y-81.2
X257.502Y-93.805
X258.154Y-88.483
X258.4Y-75.4
X259.334Y-85.217
X259.5Y-100.0
X259.5Y-105.5
X259.7Y-84.425
X259.715Y-60.452
X259.715Y-61.341
X259.715Y-82.042
X259.715Y-82.804
X260.5Y-100.0
X260.5Y-105.5
X260.604Y-60.452
X260.604Y-61.341
X261.62Y-60.452
X261.62Y-61.341
X262.387Y-80.786
X262.6Y-101.7
X262.6Y-102.7
X262.6Y-103.7
X264.525Y-80.698
X266.25Y-84.016
X266.5Y-78.285
X266.573Y-87.249
X267.97Y-93.091
T2
X192.913Y-112.395
X194.5Y-107.525
X197.485Y-108.204
X200.279Y-99.187
X201.93Y-112.268
X204.0Y-107.525
X204.5Y-99.15
X213.995Y-98.298
X213.995Y-100.203
X228.981Y-120.269
X231.648Y-65.16
X239.268Y-141.224
X239.522Y-120.015
X241.554Y-120.015
X246.126Y-136.017
X248.0Y-80.0
X250.6Y-96.8
X252.238Y-96.843
X254.207Y-133.524
X254.306Y-66.675
X256.032Y-131.445
X256.413Y-133.604
X263.779Y-132.207
X265.557Y-142.367
X265.557Y-144.399
X266.5Y-89.0
X268.0Y-84.0
T3
X263.6Y-109.0
X264.303Y-107.303
X264.303Y-110.697
X266.0Y-106.6
X266.0Y-111.4
X267.697Y-107.303
X267.697Y-110.697
X268.4Y-109.0
X213.6Y-59.0
X214.303Y-57.303
X214.303Y-60.697
X216.0Y-56.6
X216.0Y-61.4
X217.697Y-57.303
X217.697Y-60.697
X218.4Y-59.0
T4
X235.543Y-93.97
X235.543Y-96.459
X235.543Y-98.948
X238.032Y-93.97
X238.032Y-96.459
X238.032Y-98.948
X240.521Y-93.97
X240.521Y-96.459
X240.521Y-98.948
T5
X211.0Y-101.25
T6
X218.297Y-85.105
X218.297Y-86.705
X218.297Y-88.305
X220.047Y-85.905
X220.047Y-87.505
T7
X252.38Y-109.0
X254.92Y-109.0
X257.46Y-109.0
X260.0Y-109.0
X235.0Y-113.0
X237.54Y-113.0
X240.08Y-113.0
X242.62Y-113.0
X245.16Y-113.0
X254.254Y-119.888
X256.794Y-119.888
X259.334Y-119.888
X261.874Y-119.888
X242.92Y-109.0
X245.46Y-109.0
X248.0Y-109.0
X254.92Y-113.0
X257.46Y-113.0
X260.0Y-113.0
X194.84Y-127.0
X194.84Y-132.08
X202.46Y-127.0
X202.46Y-132.08
X205.0Y-127.0
X205.0Y-132.08
X244.856Y-58.5
X247.396Y-58.5
X234.0Y-109.0
X236.44Y-109.0
X238.98Y-109.0
X222.0Y-113.0
X224.54Y-113.0
X227.08Y-113.0
X229.62Y-113.0
X270.0Y-73.0
X270.0Y-75.54
X270.0Y-78.08
X270.0Y-80.62
X216.5Y-99.46
X216.5Y-102.0
X216.5Y-104.54
X216.5Y-107.08
X216.5Y-109.62
X216.5Y-112.16
X267.46Y-56.84
X267.46Y-59.38
X267.46Y-61.92
X267.46Y-64.46
X267.46Y-67.0
X270.0Y-56.84
X270.0Y-59.38
X270.0Y-61.92
X270.0Y-64.46
X270.0Y-67.0
X179.84Y-127.0
X179.84Y-132.08
X187.46Y-127.0
X187.46Y-132.08
X190.0Y-127.0
X190.0Y-132.08
X270.0Y-99.46
X270.0Y-102.0
T8
X178.9Y-61.9
X178.9Y-66.9
X178.9Y-71.9
X178.9Y-76.9
X178.9Y-81.9
X198.9Y-61.9
X198.9Y-66.9
X198.9Y-71.9
X198.9Y-76.9
X198.9Y-81.9
T9
X179.889Y-140.0
X184.969Y-140.0
X190.049Y-140.0
X197.5Y-140.0
X202.58Y-140.0
X207.66Y-140.0
X180.0Y-120.0
X185.08Y-120.0
T10
X180.92Y-91.0
X180.92Y-98.62
X186.0Y-91.0
X186.0Y-98.62
T11
X220.98Y-65.913
X226.06Y-65.913
T12
X266.0Y-109.0
X216.0Y-59.0
T6
G00X219.822Y-83.055
M15
G01X218.522Y-83.055
M16
G05
G00X219.822Y-90.355
M15
G01X218.522Y-90.355
M16
G05
T0
M30
